HW 10
…
Here we calculate relative shifts

prices_shifts <- prices_raw %>%
  group_by(ticker) %>%
  mutate(losses = (close / lag(close) - 1) * last(close)) %>% 
  select(ticker, date, losses) %>%
  na.omit() %>%
  spread(ticker, losses)

prices_shifts

## # A tibble: 2,000 x 3
##    date             AAPL       SPY
##    <date>          <dbl>     <dbl>
##  1 2010-04-21  10.0357   -0.478914
##  2 2010-04-22   4.69255   0.785116
##  3 2010-04-23   2.74523   1.71781 
##  4 2010-04-26  -0.823935 -0.993753
##  5 2010-04-27  -4.64431  -6.22364 
##  6 2010-04-28  -0.281715  1.99893 
##  7 2010-04-29   4.51518   3.26238 
##  8 2010-04-30  -4.71538  -4.46350 
##  9 2010-05-03   3.38014   3.41092 
## 10 2010-05-04  -4.83151  -6.18791 
## # ... with 1,990 more rows
…
calc_VaR <- function(losses, cutoff) {
  sort(losses)[cutoff]
}

historical_VaR <- tibble(alpha, cutoff) %>%
  mutate(
    VaR_AAPL = calc_VaR(shares_aapl * prices_shifts$AAPL, cutoff),
    VaR_SPY  = calc_VaR(shares_spy  * prices_shifts$SPY,  cutoff),
    VaR_port = calc_VaR(shares_spy  * prices_shifts$SPY + shares_aapl * prices_shifts$AAPL,  cutoff)
  )

historical_VaR

## # A tibble: 40 x 5
##          alpha cutoff VaR_AAPL   VaR_SPY VaR_port
##          <dbl>  <dbl>    <dbl>     <dbl>    <dbl>
##  1 0.000500000     1. -4146.11 -1713.72  -4139.06
##  2 0.00100000      2. -2682.04 -1232.63  -3546.81
##  3 0.00150000      3. -2204.85 -1162.54  -2875.33
##  4 0.00200000      4. -2159.56 -1134.66  -2531.90
##  5 0.00250000      5. -2099.86 -1100.56  -2525.34
##  6 0.00300000      6. -2052.38 -1075.88  -2491.24
##  7 0.00350000      7. -1877.11  -993.641 -2423.22
##  8 0.00400000      8. -1845.33  -987.047 -2403.91
##  9 0.00450000      9. -1833.09  -971.275 -2329.56
## 10 0.00500000     10. -1826.91  -944.947 -2268.48
## # ... with 30 more rows

Check for violations of coherence

I use the convention that a negative VaR is a bad thing. This is the same as saying that I use negative losses all throughout. Because of this, we check the opposite condition of VaR_port > VaR_AAPL + VaR_SPY. If this condition is true, we do NOT have a violation of coherence.

violations <- historical_VaR %>%
  mutate(
    violation = ! (VaR_port > VaR_AAPL + VaR_SPY)
  )

violations

## # A tibble: 40 x 6
##          alpha cutoff VaR_AAPL   VaR_SPY VaR_port violation
##          <dbl>  <dbl>    <dbl>     <dbl>    <dbl> <lgl>    
##  1 0.000500000     1. -4146.11 -1713.72  -4139.06 FALSE    
##  2 0.00100000      2. -2682.04 -1232.63  -3546.81 FALSE    
##  3 0.00150000      3. -2204.85 -1162.54  -2875.33 FALSE    
##  4 0.00200000      4. -2159.56 -1134.66  -2531.90 FALSE    
##  5 0.00250000      5. -2099.86 -1100.56  -2525.34 FALSE    
##  6 0.00300000      6. -2052.38 -1075.88  -2491.24 FALSE    
##  7 0.00350000      7. -1877.11  -993.641 -2423.22 FALSE    
##  8 0.00400000      8. -1845.33  -987.047 -2403.91 FALSE    
##  9 0.00450000      9. -1833.09  -971.275 -2329.56 FALSE    
## 10 0.00500000     10. -1826.91  -944.947 -2268.48 FALSE    
## # ... with 30 more rows
…
