HW6
…
Question 2

Relative shifts

portfolio_shifts <- portfolio_raw %>%
  group_by(symbol) %>%
  mutate(delta_X = close / lag(close) - 1) %>%
  select(symbol, date, delta_X) %>%
  spread(symbol, delta_X) %>%
  na.omit()

portfolio_shifts

## # A tibble: 503 x 3
##    date              AAPL          SPY
##    <date>           <dbl>        <dbl>
##  1 2016-01-08  0.00528771 -0.0109766  
##  2 2016-01-11  0.0161922   0.000989996
##  3 2016-01-12  0.0145133   0.00806829 
##  4 2016-01-13 -0.0257103  -0.0249406  
##  5 2016-01-14  0.0218708   0.0164169  
##  6 2016-01-15 -0.0240153  -0.0214662  
##  7 2016-01-19 -0.00483888  0.00133113 
##  8 2016-01-20  0.00134492 -0.0128151  
##  9 2016-01-21 -0.00506251  0.00560194 
## 10 2016-01-22  0.0531672   0.0205153  
## # ... with 493 more rows
…
Copula calculations to get the joint CDF

Lets calculate each piece individually rather than using joint_cdf() so you can see what is going on.

portfolio_copula <- portfolio_shifts %>%
  mutate(
    F1_AAPL    = cdf_empirical(AAPL),
    F2_SPY     = cdf_empirical(SPY),
    joint_cdf  = map2_dbl(F1_AAPL, F2_SPY, gaussian_copula_mvtnorm, rho = rho)
  )

portfolio_copula

## # A tibble: 503 x 6
##    date              AAPL          SPY   F1_AAPL     F2_SPY  joint_cdf
##    <date>           <dbl>        <dbl>     <dbl>      <dbl>      <dbl>
##  1 2016-01-08  0.00528771 -0.0109766   0.675944  0.0397614  0.0385493 
##  2 2016-01-11  0.0161922   0.000989996 0.916501  0.548708   0.535372  
##  3 2016-01-12  0.0145133   0.00806829  0.890656  0.910537   0.835351  
##  4 2016-01-13 -0.0257103  -0.0249406   0.0218688 0.00397614 0.00123284
##  5 2016-01-14  0.0218708   0.0164169   0.962227  0.984095   0.951214  
##  6 2016-01-15 -0.0240153  -0.0214662   0.0278330 0.00795229 0.00241523
##  7 2016-01-19 -0.00483888  0.00133113  0.246521  0.584493   0.208655  
##  8 2016-01-20  0.00134492 -0.0128151   0.530815  0.0318091  0.0296397 
##  9 2016-01-21 -0.00506251  0.00560194  0.238569  0.831014   0.231545  
## 10 2016-01-22  0.0531672   0.0205153   0.996024  0.992048   0.988747  
## # ... with 493 more rows
…
Question 3

Absolute shifts

portfolio_abs_shifts <- portfolio_raw %>%
  group_by(symbol) %>%
  mutate(delta_X = close - lag(close)) %>%
  select(symbol, date, delta_X) %>%
  spread(symbol, delta_X) %>%
  na.omit()

portfolio_abs_shifts

## # A tibble: 503 x 3
##    date            AAPL       SPY
##    <date>         <dbl>     <dbl>
##  1 2016-01-08  0.510000 -2.13000 
##  2 2016-01-11  1.57000   0.190000
##  3 2016-01-12  1.43000   1.55000 
##  4 2016-01-13 -2.57000  -4.83000 
##  5 2016-01-14  2.13000   3.10000 
##  6 2016-01-15 -2.39000  -4.12000 
##  7 2016-01-19 -0.470000  0.250000
##  8 2016-01-20  0.130000 -2.41000 
##  9 2016-01-21 -0.490000  1.04000 
## 10 2016-01-22  5.12000   3.83000 
## # ... with 493 more rows
…
# Calculate the change in each stock and the change in the portfolio
portfolio_delta_p <- tibble(delta_X_AAPL, delta_X_SPY) %>%
  mutate(
    shifted_aapl_price  = current_aapl_price + delta_X_AAPL,
    shifted_aapl_option = put_option_pricer(shifted_aapl_price, k, r, y, time_to_expiry, sigma),
    delta_p_aapl        = shifted_aapl_option - current_aapl_option,
    delta_p_spy         = delta_X_SPY,
    delta_p             = shares_spy * delta_p_spy + options_appl * delta_p_aapl
  )

portfolio_delta_p

## # A tibble: 10,000 x 7
##    delta_X_AAPL delta_X_SPY shifted_aapl_pr shifted_aapl_op delta_p_aapl
##           <dbl>       <dbl>            <dbl>            <dbl>        <dbl>
##  1     0.646847   1.04203            175.647          14.8309   -0.261997 
##  2    -0.117517  -0.484738           174.882          15.1409    0.0479909
##  3     0.670682  -1.51865            175.671          14.8213   -0.271582 
##  4     0.699213   0.0934715          175.699          14.8098   -0.283048 
##  5    -0.307231  -1.07473            174.693          15.2186    0.125720 
##  6    -0.124999   1.93558            174.875          15.1439    0.0510505
##  7     0.402579   0.704958           175.403          14.9294   -0.163488 
##  8    -0.844459   0.339975           174.156          15.4404    0.347548 
##  9    -1.01607   -0.828901           173.984          15.5118    0.418947 
## 10     1.33732    0.943345           176.337          14.5552   -0.537656 
## # ... with 9,990 more rows, and 2 more variables: delta_p_spy <dbl>,
## #   delta_p <dbl>
…
