HW 8
…
Question 2

Absolute shifts

portfolio_abs_shifts <- portfolio_raw %>%
  group_by(symbol) %>%
  mutate(delta_X = close - lag(close)) %>%
  select(symbol, date, delta_X) %>%
  na.omit()

portfolio_abs_shifts

## # A tibble: 1,006 x 3
## # Groups:   symbol [2]
##    symbol date         delta_X
##    <chr>  <date>         <dbl>
##  1 AAPL   2016-01-08  0.510000
##  2 AAPL   2016-01-11  1.57000 
##  3 AAPL   2016-01-12  1.43000 
##  4 AAPL   2016-01-13 -2.57000 
##  5 AAPL   2016-01-14  2.13000 
##  6 AAPL   2016-01-15 -2.39000 
##  7 AAPL   2016-01-19 -0.470000
##  8 AAPL   2016-01-20  0.130000
##  9 AAPL   2016-01-21 -0.490000
## 10 AAPL   2016-01-22  5.12000 
## # ... with 996 more rows
…
  # The above results in a list of lists. Flatten to get 1 list of calls
  calls <- rlang::flatten(calls_list)

  dplyr::mutate(x, !!! calls)
}

lags.tbl <- lags.data.frame

Example:

lags(portfolio_abs_shifts, 1:2, delta_X)

## # A tibble: 1,006 x 5
## # Groups:   symbol [2]
##    symbol date         delta_X delta_X_lag_01 delta_X_lag_02
##    <chr>  <date>         <dbl>          <dbl>          <dbl>
##  1 AAPL   2016-01-08  0.510000      NA             NA       
##  2 AAPL   2016-01-11  1.57000        0.510000      NA       
##  3 AAPL   2016-01-12  1.43000        1.57000        0.510000
##  4 AAPL   2016-01-13 -2.57000        1.43000        1.57000 
##  5 AAPL   2016-01-14  2.13000       -2.57000        1.43000 
##  6 AAPL   2016-01-15 -2.39000        2.13000       -2.57000 
##  7 AAPL   2016-01-19 -0.470000      -2.39000        2.13000 
##  8 AAPL   2016-01-20  0.130000      -0.470000      -2.39000 
##  9 AAPL   2016-01-21 -0.490000       0.130000      -0.470000
## 10 AAPL   2016-01-22  5.12000       -0.490000       0.130000
## # ... with 996 more rows
…
